chromosome	start_position	end_position	variant_id	variant_type	variant_source	variant_alleles	variant_maf
14	21294745	21294745	rs192003551	SNV	dbSNP	C/A/T	0.0002
14	21325330	21325330	rs577932201	SNV	dbSNP	C/G/T	0.0002
14	24096930	24096930	rs61752842	SNV	dbSNP	C/G/T	0.001398
14	24240544	24240544	rs201677741	SNV	dbSNP	G/T	0.0002
14	24262193	24262193	rs140000324	SNV	dbSNP	G/A	0.000399
14	31066320	31066320	rs387906970	SNV	dbSNP	C/A/G/T	0.002995
14	31072908	31072908	rs568176223	SNV	dbSNP	G/A/T	0.0002
14	31072968	31072968	rs200440467	SNV	dbSNP	C/A/T	0.0002
14	36517871	36517871	rs137852693	SNV	dbSNP	C/A/G	0.0002
14	39159508	39159508	rs377626365	SNV	dbSNP	G/A	0.0002
14	45189123	45189123	rs147021911	SNV	dbSNP	C/T	0.000799
14	45198718	45198718	rs144567652	SNV	dbSNP	C/A/T	0.000599
14	56802068	56802068	rs104894465	SNV	dbSNP	A/G/T	0.0002
14	64772678	64772678	rs200386310	SNV	dbSNP	C/A/T	0.000799
14	64784333	64784333	rs150471537	SNV	dbSNP	G/A/T	0.0002
14	67724588	67724588	rs104894471	SNV	dbSNP	C/T	0.0002
14	73958149	73958149	rs189840848	SNV	dbSNP	C/G/T	0.0002
14	75579445	75579445	rs138495705	SNV	dbSNP	C/A/T	0.0002
14	95103721	95103721	rs184830847	SNV	dbSNP	G/A/C	0.0002
