chromosome	start_position	end_position	variant_id	variant_type	variant_source	variant_alleles	variant_maf
15	30925199	30925199	rs387907279	SNV	dbSNP	C/G/T	0.0002
15	31069884	31069884	rs150441866	SNV	dbSNP	A/C	0.000399
15	34254503	34254503	rs35583475	SNV	dbSNP	G/A/T	0.01637
15	34275363	34275363	rs573444140	SNV	dbSNP	C/A/G	0.0002
15	34275363	34275366	rs573444140	indel	dbSNP	C/A/G	0.0002
15	40625535	40625535	rs191249840	SNV	dbSNP	C/A/G/T	0.003994
15	41815388	41815388	rs202001274	SNV	dbSNP	C/G/T	0.0002
15	42384492	42384492	rs1801505	SNV	dbSNP	G/A/T	0.002396
15	43203237	43203237	rs115998465	SNV	dbSNP	C/A/G	0.0002
15	43610350	43610350	rs576724182	SNV	dbSNP	G/A	0.001997
15	44564675	44564675	rs80338869	SNV	dbSNP	G/A/C/T	0.01178
15	44565997	44565997	rs312262785	SNV	dbSNP	G/A	0.0002
15	44574934	44574934	rs200793464	SNV	dbSNP	G/A	0.0002
15	44628785	44628785	rs199588440	SNV	dbSNP	G/A	0.0002
15	45103961	45103961	rs199589510	SNV	dbSNP	G/A/T	0.0002
15	45107450	45107450	rs180671269	SNV	dbSNP	T/A/C	0.000599
15	45117274	45117274	rs4774518	SNV	dbSNP	C/G/T	0.01877
15	48412646	48412646	rs187553035	SNV	dbSNP	C/A/T	0.0002
15	48412646	48412646	rs187553035	insertion	dbSNP	C/A/T	0.0002
15	48415735	48415735	rs141133182	SNV	dbSNP	C/A/T	0.0002
15	48472594	48472594	rs112375043	SNV	dbSNP	G/A/C/T	0.0002
15	48474565	48474565	rs201058219	SNV	dbSNP	G/A/T	0.0002
15	48503845	48503845	rs140603	SNV	dbSNP	G/A/C/T	0.002796
15	48596311	48596311	rs111671429	SNV	dbSNP	G/A/C	0.000399
15	48610768	48610768	rs25388	SNV	dbSNP	G/A/T	0.000799
15	48610768	48610769	rs25388	substitution	dbSNP	G/A/T	0.000799
15	48741607	48741607	rs201442213	SNV	dbSNP	G/A	0.0002
15	48767448	48767448	rs182018947	SNV	dbSNP	A/C/G	0.000599
15	51404338	51404338	rs539703340	SNV	dbSNP	C/A/T	0.0002
15	53615520	53615520	rs557128345	SNV	dbSNP	G/A	0.0002
15	57232417	57232417	rs554037047	SNV	dbSNP	C/A/T	0.0002
15	64409710	64409710	rs147303485	SNV	dbSNP	C/T	0.0002
15	68214373	68214373	rs104894483	SNV	dbSNP	C/A/G/T	0.005790999999999999
15	86674435	86674435	rs185919705	SNV	dbSNP	C/T	0.0015970000000000001
15	89316771	89316771	rs144346886	SNV	dbSNP	G/A/C/T	0.000799
15	89631689	89631689	rs202229910	SNV	dbSNP	G/A/C	0.0002
15	89652774	89652774	rs569323391	SNV	dbSNP	G/A/C	0.0002
15	89776586	89776586	rs538996447	SNV	dbSNP	G/A/T	0.0002
15	92992967	92992967	rs2272457	SNV	dbSNP	C/G/T	0.1935
