chromosome	start_position	end_position	variant_id	variant_type	variant_source	variant_alleles	variant_maf
6	3105753	3105753	rs374657927	SNV	dbSNP	C/A/G/T	0.0002
6	109735199	109735199	rs121908288	SNV	dbSNP	C/A/T	0.000399
6	109760253	109760253	rs377357931	SNV	dbSNP	C/T	0.0002
6	116927317	116927317	rs144648002	SNV	dbSNP	C/G/T	0.002396
6	129059863	129059863	rs535635043	SNV	dbSNP	C/A/T	0.0002
6	129098274	129098274	rs553221833	SNV	dbSNP	G/A	0.0002
6	129300783	129300783	rs145420388	SNV	dbSNP	C/A/T	0.0002
6	129315823	129315847	rs200625655	indel	dbSNP	C/T	0.0002
6	129353285	129353285	rs121913575	SNV	dbSNP	C/T	0.0002
6	136866718	136866718	rs61753245	SNV	dbSNP	G/A	0.000399
6	145735336	145735336	rs187930476	SNV	dbSNP	G/A/C/T	0.004992
6	152369064	152369064	rs149901087	SNV	dbSNP	G/A/C	0.0002
6	152407089	152407089	rs185829704	SNV	dbSNP	G/A/T	0.0002
6	158150516	158150516	rs529232938	SNV	dbSNP	G/A	0.0002
6	26091475	26091475	rs146519482	SNV	dbSNP	G/C/T	0.0002
6	29673328	29673328	rs61730328	SNV	dbSNP	G/A/T	0.003994
6	31962494	31962494	rs200818962	SNV	dbSNP	C/T	0.0002
6	33177700	33177700	rs374156844	SNV	dbSNP	G/A	0.0002
6	38786788	38786788	rs567050969	SNV	dbSNP	C/T	0.0002
6	41161421	41161421	rs104893998	SNV	dbSNP	C/T	0.0002
6	43038949	43038949	rs121918228	SNV	dbSNP	G/A	0.0002
6	43043156	43043157	rs184458742	deletion	dbSNP	C/T	0.0002
6	43046304	43046304	rs201406974	SNV	dbSNP	A/C/G	0.0002
6	43655634	43655634	rs376496894	SNV	dbSNP	C/T	0.0002
6	49441871	49441871	rs148285323	SNV	dbSNP	C/A/G	0.000399
6	49444684	49444685	rs78150750	substitution	dbSNP	C/A/T	0.000599
6	49457762	49457762	rs200596762	SNV	dbSNP	G/A	0.0002
6	51619425	51619425	rs144193508	SNV	dbSNP	G/A	0.000399
6	51847871	51847871	rs137852947	SNV	dbSNP	G/A	0.000399
6	51847966	51847966	rs181208607	SNV	dbSNP	G/T	0.0002
6	51909466	51909466	rs368263958	SNV	dbSNP	G/A/T	0.000399
6	7565469	7565469	rs149701627	SNV	dbSNP	C/G/T	0.0002
6	7579697	7579697	rs148894066	SNV	dbSNP	C/A/T	0.000799
6	7580562	7580562	rs28763965	SNV	dbSNP	C/A/G/T	0.001797
6	57194817	57194817	rs121908171	SNV	dbSNP	A/T	0.000399
6	63864319	63864319	rs398123575	SNV	dbSNP	A/C	0.0002
6	65402507	65402507	rs143994166	SNV	dbSNP	A/T	0.000599
6	73621864	73621864	rs201284672	SNV	dbSNP	A/C	0.000399
6	73641807	73641810	rs80338795	indel	dbSNP	T/A/C	0.0002
6	73641810	73641810	rs80338795	SNV	dbSNP	T/A/C	0.0002
6	76042019	76042019	rs200651043	SNV	dbSNP	G/A/C	0.0002
6	78970876	78970876	rs200788163	SNV	dbSNP	G/A	0.0002
6	79491624	79491624	rs183261547	SNV	dbSNP	G/A/C	0.000399
6	80343774	80343774	rs190867671	SNV	dbSNP	T/A/C	0.0002
6	10770200	10770205	rs186643840	indel	dbSNP	G/T	0.0002
